Data cleaning
…
## Manipulate data ----

iris_nice |>
  dplyr::select(sepal_length, sepal_width, species) |>
  dplyr::filter(sepal_length <= 5) |>
  dplyr::group_by(species) |>
  dplyr::mutate("mean_length" = mean(sepal_length),
                "mean_width"  = mean(sepal_width))

# A tibble: 32 × 5
# Groups:   species [3]
   sepal_length sepal_width species mean_length mean_width
          <dbl>       <dbl> <fct>         <dbl>      <dbl>
 1          4.9         3   setosa         4.76       3.20
 2          4.7         3.2 setosa         4.76       3.20
 3          4.6         3.1 setosa         4.76       3.20
 4          5           3.6 setosa         4.76       3.20
 5          4.6         3.4 setosa         4.76       3.20
 6          5           3.4 setosa         4.76       3.20
 7          4.4         2.9 setosa         4.76       3.20
 8          4.9         3.1 setosa         4.76       3.20
 9          4.8         3.4 setosa         4.76       3.20
10          4.8         3   setosa         4.76       3.20
# ℹ 22 more rows
…
## Pivot to longer ----

newtab <- relig_income |> 
  tidyr::pivot_longer(cols      = !religion,
                      names_to  = "income",
                      values_to = "count")

newtab

# A tibble: 180 × 3
   religion income             count
   <chr>    <chr>              <dbl>
 1 Agnostic <$10k                 27
 2 Agnostic $10-20k               34
 3 Agnostic $20-30k               60
 4 Agnostic $30-40k               81
 5 Agnostic $40-50k               76
 6 Agnostic $50-75k              137
 7 Agnostic $75-100k             122
 8 Agnostic $100-150k            109
 9 Agnostic >150k                 84
10 Agnostic Don't know/refused    96
# ℹ 170 more rows
…
