Data cleaning
…
iris_nice <- janitor::clean_names(iris)
colnames(iris_nice)

[1] "sepal_length" "sepal_width"  "petal_length" "petal_width"  "species"     

dplyr demo

iris_nice |>
  dplyr::select(sepal_length, sepal_width, species) |>
  dplyr::filter(sepal_length <= 5) |>
  dplyr::group_by(species) |>
  dplyr::mutate(mean_length = mean(sepal_length),
                mean_width = mean(sepal_width))

# A tibble: 32 × 5
# Groups:   species [3]
   sepal_length sepal_width species mean_length mean_width
          <dbl>       <dbl> <fct>         <dbl>      <dbl>
 1          4.9         3   setosa         4.76       3.20
 2          4.7         3.2 setosa         4.76       3.20
 3          4.6         3.1 setosa         4.76       3.20
 4          5           3.6 setosa         4.76       3.20
 5          4.6         3.4 setosa         4.76       3.20
 6          5           3.4 setosa         4.76       3.20
 7          4.4         2.9 setosa         4.76       3.20
 8          4.9         3.1 setosa         4.76       3.20
 9          4.8         3.4 setosa         4.76       3.20
10          4.8         3   setosa         4.76       3.20
# ℹ 22 more rows
…
